license GNU GPL 2, http://lifeware.inria.fr/biocham4/
E*S*k1 for E+S=>C.
C*k2 for C=>E+S.
C*k3 for C=>E+P.
initial_state(E=e).
initial_state(S=s).
absent(C).
absent(P).
parameter(
  k2 = 25,
  k3 = 15,
).
<img src="graph0.png" alt="Simulation results">
<img src="graph1.png" alt="Simulation results">
<img src="ode.tex" alt="Simulation results">
C+E
C+P+S
2 complex invariant(s)
<img src="plot-0.csv" alt="Simulation results">
<img src="plot-1.csv" alt="Simulation results">
<img src="plot-2.csv" alt="Simulation results">
<img src="plot-3.csv" alt="Simulation results">
<img src="graph2.png" alt="Simulation results">
E*S*k1 for E+S=>C.
C*k2 for C=>E+S.
C*k3 for C=>E+P.
A*Vm/(A+Km) for A=>B.
initial_state(E=e).
initial_state(S=s).
absent(C).
absent(P).
initial_state(A=s).
absent(B).
parameter(
  k2 = 25,
  k3 = 15,
).
function(
  Vm = k3*e,
  Km = (k2+k3)/k1
).
<img src="ode.tex" alt="Simulation results">
<img src="plot-4.csv" alt="Simulation results">
E*S*k1 for E+S=>C.
C*k2 for C=>E+S.
C*k3 for C=>E+P.
A*Vm/(A+Km) for A=>B.
initial_state(E=e).
initial_state(S=s).
absent(C).
absent(P).
initial_state(A=s).
absent(B).
parameter(
  k2 = 25,
  k3 = 15,
).
function(
  Vm = k3*e,
  Km = (k2+k3)/k1
).
<img src="plot-5.csv" alt="Simulation results">
<img src="plot-6.csv" alt="Simulation results">
<img src="plot-7.csv" alt="Simulation results">
