license GNU GPL 2, http://lifeware.inria.fr/biocham4/
k1*M*MAPKK for M+MAPKK=>M_MAPKK.
k_1*M_MAPKK for M_MAPKK=>M+MAPKK.
k2*M_MAPKK for M_MAPKK=>MAPKK+Mp.
k3*Mp*MAPKK for MAPKK+Mp=>Mp_MAPKK.
k_3*Mp_MAPKK for Mp_MAPKK=>MAPKK+Mp.
k4*Mp_MAPKK for Mp_MAPKK=>MAPKK+Mpp.
h1*Mpp*MKP3 for MKP3+Mpp=>Mpp_MKP3.
h_1*Mpp_MKP3 for Mpp_MKP3=>MKP3+Mpp.
h2*Mpp_MKP3 for Mpp_MKP3=>Mp_MKP3_dep.
h3*Mp_MKP3_dep/uVol for Mp_MKP3_dep=>MKP3+Mp.
h_3*Mp*MKP3/uVol for MKP3+Mp=>Mp_MKP3_dep.
h4*Mp*MKP3 for MKP3+Mp=>Mp_MKP3.
h_4*Mp_MKP3 for Mp_MKP3=>MKP3+Mp.
h5*Mp_MKP3 for Mp_MKP3=>M_MKP3.
h6*M_MKP3 for M_MKP3=>M+MKP3.
h_6*M*MKP3 for M+MKP3=>M_MKP3.
parameter(
).
M+M_MAPKK+M_MKP3+Mp+Mp_MAPKK+Mp_MKP3+Mp_MKP3_dep+Mpp+Mpp_MKP3
MAPKK+M_MAPKK+Mp_MAPKK
MKP3+M_MKP3+Mp_MKP3+Mp_MKP3_dep+Mpp_MKP3
3 complex invariant(s)
<img src="graph0.png" alt="Simulation results">
There may be non-degenerate multistationarity, positive circuit detected.
<img src="ode.tex" alt="Simulation results">
<img src="plot-0.csv" alt="Simulation results">
<img src="plot-1.csv" alt="Simulation results">
<img src="plot-2.csv" alt="Simulation results">
<img src="plot-3.csv" alt="Simulation results">
